[
  {
    "pname": "onepassword-password-manager",
    "slug": "1password-x-password-manager",
    "license": {
      "tag": "custom",
      "shortName": "1pwd",
      "fullName": "Service Agreement for 1Password users and customers",
      "url": "https://1password.com/legal/terms-of-service/",
      "free": false
    }
  },
  {
    "slug": "a11ycss"
  },
  {
    "slug": "add-custom-search-engine"
  },
  {
    "slug": "adnauseam"
  },
  {
    "slug": "adsum-notabs"
  },
  {
    "slug": "amp2html"
  },
  {
    "slug": "anchors-reveal"
  },
  {
    "slug": "anonaddy"
  },
  {
    "slug": "augmented-steam"
  },
  {
    "slug": "auto-tab-discard"
  },
  {
    "slug": "behave"
  },
  {
    "slug": "behind-the-overlay-revival"
  },
  {
    "slug": "belgium-eid"
  },
  {
    "slug": "better-tweetdeck-17",
    "pname": "better-tweetdeck"
  },
  {
    "slug": "betterttv",
    "license": {
      "tag": "custom",
      "shortName": "betterttv",
      "fullName": "BetterTTV Terms of Service",
      "url": "https://betterttv.com/terms",
      "free": false
    }
  },
  {
    "slug": "beyond-20"
  },
  {
    "slug": "bitwarden-password-manager",
    "pname": "bitwarden"
  },
  {
    "slug": "browserpass-ce",
    "pname": "browserpass"
  },
  {
    "slug": "bukubrow"
  },
  {
    "slug": "buster-captcha-solver"
  },
  {
    "slug": "bypass-paywalls-clean"
  },
  {
    "slug": "c-c-search-extension"
  },
  {
    "slug": "canvasblocker"
  },
  {
    "slug": "clearurls"
  },
  {
    "slug": "close-other-windows"
  },
  {
    "slug": "conex"
  },
  {
    "slug": "consent-o-matic",
    "license": {
      "tag": "predefined",
      "shortName": "mit"
    }
  },
  {
    "slug": "cookie-autodelete"
  },
  {
    "slug": "cookies-txt"
  },
  {
    "slug": "copy-selection-as-markdown"
  },
  {
    "slug": "dark-mode-website-switcher"
  },
  {
    "slug": "dark-scroll-for-tweetdeck"
  },
  {
    "slug": "darkreader"
  },
  {
    "slug": "decentraleyes"
  },
  {
    "slug": "df-youtube"
  },
  {
    "slug": "dictionnaire-français1",
    "pname": "french-dictionary"
  },
  {
    "slug": "disable-javascript"
  },
  {
    "slug": "disconnect"
  },
  {
    "slug": "display-_anchors"
  },
  {
    "slug": "don-t-fuck-with-paste"
  },
  {
    "slug": "duckduckgo-for-firefox",
    "pname": "duckduckgo-privacy-essentials",
    "license": {
      "tag": "predefined",
      "shortName": "asl20"
    }
  },
  {
    "slug": "ecosia-the-green-search",
    "pname": "ecosia"
  },
  {
    "slug": "enhancer-for-youtube",
    "license": {
      "tag": "custom",
      "shortName": "enhancer-for-youtube",
      "fullName": "Custom License for Enhancer for YouTube™",
      "url": "https://addons.mozilla.org/en-US/firefox/addon/enhancer-for-youtube/license/",
      "free": false
    }
  },
  {
    "slug": "ether-metamask",
    "pname": "metamask"
  },
  {
    "slug": "export-tabs-urls-and-titles"
  },
  {
    "slug": "facebook-container"
  },
  {
    "slug": "ff2mpv"
  },
  {
    "slug": "firefox-color"
  },
  {
    "slug": "firefox-translations"
  },
  {
    "slug": "firenvim"
  },
  {
    "slug": "flagfox",
    "license": {
      "tag": "custom",
      "shortName": "flagfox",
      "fullName": "Flagfox License",
      "url": "https://addons.mozilla.org/en-US/firefox/addon/flagfox/license/",
      "free": false
    }
  },
  {
    "slug": "floccus"
  },
  {
    "slug": "forget_me_not",
    "license": {
      "tag": "predefined",
      "shortName": "zlib"
    }
  },
  {
    "slug": "form-history-control"
  },
  {
    "slug": "foxyproxy-standard"
  },
  {
    "slug": "fraidycat"
  },
  {
    "slug": "français-language-pack",
    "pname": "french-language-pack"
  },
  {
    "slug": "gesturefy"
  },
  {
    "slug": "ghostery"
  },
  {
    "slug": "ghosttext"
  },
  {
    "slug": "gitpod",
    "license": {
      "tag": "custom",
      "shortName": "allrightsreserved",
      "fullName": "All Rights Reserved",
      "url": "https://en.wikipedia.org/w/index.php?title=All_rights_reserved&oldid=1101263186",
      "free": false
    }
  },
  {
    "slug": "gnome-shell-integration"
  },
  {
    "slug": "google-cal-event-merge"
  },
  {
    "slug": "gopass-bridge"
  },
  {
    "slug": "grammarly-1",
    "pname": "grammarly",
    "license": {
      "tag": "custom",
      "shortName": "grammarly",
      "fullName": "Grammarly Terms of Service and License Agreement",
      "url": "https://www.grammarly.com/terms",
      "free": false
    }
  },
  {
    "slug": "greasemonkey"
  },
  {
    "slug": "gsconnect"
  },
  {
    "slug": "görans-hemmasnickrade-ordli",
    "pname": "swedish-dictionary"
  },
  {
    "slug": "h264ify"
  },
  {
    "slug": "header-editor"
  },
  {
    "slug": "honey",
    "license": {
      "tag": "custom",
      "shortName": "honeyl",
      "fullName": "Custom License for Honey",
      "url": "https://addons.mozilla.org/en-US/firefox/addon/honey/license/",
      "free": false
    }
  },
  {
    "slug": "https-everywhere",
    "license": {
      "tag": "custom",
      "shortName": "https-everywhere-license",
      "fullName": "Multiple",
      "url": "https://addons.mozilla.org/en-US/firefox/addon/https-everywhere/license/",
      "free": true
    }
  },
  {
    "slug": "i-dont-care-about-cookies"
  },
  {
    "slug": "ipfs-companion"
  },
  {
    "slug": "js-search-extension"
  },
  {
    "slug": "keepass-helper-url-in-title",
    "pname": "keepass-helper"
  },
  {
    "slug": "keepassxc-browser"
  },
  {
    "slug": "kristofferhagen-nord-theme"
  },
  {
    "slug": "laboratory-by-mozilla"
  },
  {
    "slug": "languagetool",
    "license": {
      "tag": "custom",
      "shortName": "languagetool",
      "fullName": "Custom License for LanguageTool",
      "url": "https://languagetool.org/legal/",
      "free": false
    }
  },
  {
    "slug": "lastpass-password-manager",
    "license": {
      "tag": "custom",
      "shortName": "unfree",
      "fullName": "Unfree",
      "url": "https://addons.mozilla.org/en-US/firefox/addon/lastpass-password-manager/license/",
      "free": false
    }
  },
  {
    "slug": "leechblock-ng"
  },
  {
    "slug": "lesspass"
  },
  {
    "slug": "libredirect"
  },
  {
    "slug": "limit-limit-distracting-sites",
    "license": {
      "tag": "custom",
      "shortName": "unfree",
      "fullName": "Unfree",
      "url": "https://freedom.to/terms",
      "free": false
    }
  },
  {
    "slug": "link-cleaner"
  },
  {
    "slug": "linkhints"
  },
  {
    "slug": "localcdn-fork-of-decentraleyes",
    "pname": "localcdn"
  },
  {
    "slug": "mailvelope"
  },
  {
    "slug": "markdownload"
  },
  {
    "slug": "matte-black-red",
    "license": {
      "tag": "predefined",
      "shortName": "cc-by-nc-sa-30"
    }
  },
  {
    "slug": "momentumdash",
    "license": {
      "tag": "custom",
      "shortName": "momentum",
      "fullName": "Momentum Terms of Use",
      "url": "https://momentumdash.com/legal",
      "free": false
    }
  },
  {
    "slug": "multi-account-containers"
  },
  {
    "slug": "musescore-downloader"
  },
  {
    "slug": "netflix-1080p-firefox",
    "pname": "netflix-1080p"
  },
  {
    "slug": "new-window-without-toolbar"
  },
  {
    "slug": "new-zealand-english-dict"
  },
  {
    "slug": "news-feed-eradicator"
  },
  {
    "slug": "nighttab"
  },
  {
    "slug": "ninja-cookie",
    "license": {
      "tag": "custom",
      "shortName": "ninja-cookie",
      "fullName": "End-User License Agreement (EULA) of Ninja Cookie",
      "url": "https://ninja-cookie.com/eula/",
      "free": false
    }
  },
  {
    "slug": "no-pdf-download"
  },
  {
    "pname": "theme-nord-polar-night",
    "slug": "nord-polar-night-theme"
  },
  {
    "slug": "noscript"
  },
  {
    "slug": "octolinker"
  },
  {
    "slug": "octotree"
  },
  {
    "slug": "offline-qr-code-generator"
  },
  {
    "slug": "okta-browser-plugin",
    "license": {
      "tag": "custom",
      "shortName": "okta",
      "fullName": "Various Okta Agreements",
      "url": "https://www.okta.com/agreements/",
      "free": false
    }
  },
  {
    "slug": "old-reddit-redirect"
  },
  {
    "slug": "onetab",
    "license": {
      "tag": "custom",
      "shortName": "onetab",
      "fullName": "Custom License for OneTab",
      "url": "https://addons.mozilla.org/en-US/firefox/addon/onetab/license/",
      "free": false
    }
  },
  {
    "slug": "open-in-browser"
  },
  {
    "slug": "org-capture"
  },
  {
    "slug": "pay-by-privacy-com",
    "license": {
      "tag": "custom",
      "shortName": "pay-by-privacy.com",
      "fullName": "Custom License for Pay by Privacy.com",
      "url": "https://addons.mozilla.org/en-US/firefox/addon/pay-by-privacy-com/license/",
      "free": false
    }
  },
  {
    "slug": "peertubeify"
  },
  {
    "slug": "pinboard"
  },
  {
    "slug": "plasma-integration"
  },
  {
    "slug": "pocket-select-all",
    "license": {
      "tag": "custom",
      "shortName": "unfree",
      "fullName": "Unfree",
      "url": "https://addons.mozilla.org/en-US/firefox/addon/pocket-select-all/",
      "free": false
    }
  },
  {
    "slug": "polish-spellchecker-dictionary",
    "pname": "polish-dictionary"
  },
  {
    "slug": "polkadot-js-extension",
    "pname": "polkadot-js"
  },
  {
    "slug": "privacy-badger17",
    "pname": "privacy-badger"
  },
  {
    "slug": "privacy-pass"
  },
  {
    "slug": "privacy-possum"
  },
  {
    "slug": "privacy-redirect",
    "license": {
      "tag": "predefined",
      "shortName": "gpl3Plus"
    }
  },
  {
    "slug": "privacy-settings"
  },
  {
    "slug": "private-relay"
  },
  {
    "slug": "promnesia"
  },
  {
    "slug": "protondb-for-steam"
  },
  {
    "slug": "pywalfox"
  },
  {
    "slug": "rabattcorner"
  },
  {
    "slug": "react-devtools"
  },
  {
    "slug": "reddit-enhancement-suite"
  },
  {
    "slug": "reddit-moderator-toolbox"
  },
  {
    "slug": "reddit_comment_collapser",
    "pname": "reddit-comment-collapser"
  },
  {
    "slug": "redirector"
  },
  {
    "slug": "reduxdevtools"
  },
  {
    "slug": "refined-github-",
    "pname": "refined-github"
  },
  {
    "slug": "return-youtube-dislikes"
  },
  {
    "slug": "rust-search-extension"
  },
  {
    "slug": "save-page-we"
  },
  {
    "slug": "search-engines-helper"
  },
  {
    "slug": "search_by_image",
    "pname": "search-by-image"
  },
  {
    "slug": "sidebery"
  },
  {
    "slug": "simple-tab-groups"
  },
  {
    "slug": "single-file",
    "license": {
      "tag": "predefined",
      "shortName": "agpl3Plus"
    }
  },
  {
    "slug": "skip-redirect"
  },
  {
    "slug": "smart-referer",
    "license": {
      "tag": "predefined",
      "shortName": "wtfpl"
    }
  },
  {
    "slug": "solarized-light",
    "license": {
      "tag": "custom",
      "shortName": "all-rights-reserved",
      "fullName": "All Rights Reserved",
      "url": "https://en.wikipedia.org/wiki/All_rights_reserved",
      "free": false
    }
  },
  {
    "slug": "sourcegraph-for-firefox",
    "pname": "sourcegraph"
  },
  {
    "slug": "sponsorblock"
  },
  {
    "slug": "startpage-private-search"
  },
  {
    "slug": "steam-database",
    "license": {
      "tag": "predefined",
      "shortName": "bsd3"
    }
  },
  {
    "slug": "styl-us",
    "pname": "stylus"
  },
  {
    "pname": "surfingkeys",
    "slug": "surfingkeys_ff"
  },
  {
    "slug": "tab-counter-plus",
    "license": {
      "tag": "predefined",
      "shortName": "asl20"
    }
  },
  {
    "slug": "tab-session-manager"
  },
  {
    "slug": "tabcenter-reborn"
  },
  {
    "slug": "tabliss"
  },
  {
    "slug": "tampermonkey",
    "license": {
      "tag": "custom",
      "shortName": "tampermonkey",
      "fullName": "End-User License Agreement for Tampermonkey",
      "url": "https://addons.mozilla.org/en-US/firefox/addon/tampermonkey/eula/",
      "free": false
    }
  },
  {
    "slug": "temporary-containers"
  },
  {
    "slug": "terms-of-service-didnt-read",
    "license": {
      "tag": "predefined",
      "shortName": "agpl3Plus"
    }
  },
  {
    "slug": "text-contrast-for-dark-themes"
  },
  {
    "slug": "textern"
  },
  {
    "slug": "to-deepl"
  },
  {
    "slug": "tokyo-night-v2"
  },
  {
    "slug": "tomato-clock"
  },
  {
    "slug": "torproject-snowflake",
    "pname": "snowflake",
    "license": {
      "tag": "predefined",
      "shortName": "bsd3"
    }
  },
  {
    "slug": "traduzir-paginas-web",
    "pname": "translate-web-pages"
  },
  {
    "slug": "transparent-standalone-image"
  },
  {
    "slug": "tree-style-tab",
    "license": {
      "tag": "custom",
      "shortName": "tree-style-tab",
      "fullName": "Tree Style Tab License, primarily MPL 2.0",
      "url": "https://github.com/piroor/treestyletab/blob/trunk/COPYING.txt",
      "free": true
    }
  },
  {
    "slug": "tridactyl-vim",
    "pname": "tridactyl",
    "license": {
      "tag": "predefined",
      "shortName": "asl20"
    }
  },
  {
    "slug": "tst-search",
    "pname": "tst-tab-search"
  },
  {
    "slug": "ublacklist"
  },
  {
    "slug": "ublock-origin"
  },
  {
    "slug": "ubo-scope"
  },
  {
    "slug": "ukrainian-dictionary",
    "license": {
      "tag": "predefined",
      "shortName": "mpl11"
    }
  },
  {
    "slug": "umatrix"
  },
  {
    "slug": "unpaywall"
  },
  {
    "slug": "user-agent-string-switcher"
  },
  {
    "slug": "videospeed"
  },
  {
    "slug": "view-image"
  },
  {
    "slug": "vim-vixen"
  },
  {
    "slug": "vimium-ff",
    "pname": "vimium"
  },
  {
    "slug": "violentmonkey"
  },
  {
    "slug": "vue-js-devtools"
  },
  {
    "slug": "wallabagger"
  },
  {
    "slug": "wappalyzer"
  },
  {
    "slug": "wayback-machine_new",
    "pname": "wayback-machine"
  },
  {
    "slug": "web-scrobbler"
  },
  {
    "slug": "windscribe"
  },
  {
    "slug": "xbs",
    "pname": "xbrowsersync"
  },
  {
    "slug": "zoom-page-we"
  },
  {
    "slug": "zoom-redirector"
  }
]
